@startuml
hide footbox
actor Buyer
actor Seller
Buyer -> Seller: I want to buy “I am a strange loop”.
Seller -> Buyer: It costs $10.
Buyer -> Seller: OK. Ship it to 42<sup>nd</sup> st.
Seller -> Buyer: Should be delivered by 10th August.
Buyer -> Seller: Bye.
@enduml